[
  {
    "title": "Pronkjewailpad",
    "city": "Groningen, The Netherlands",
    "information": "Hotel Groningen-Westerbroek is sinds april 2019 stempelpost van het Pronkjewailpad!Het Pronkjewailpad is een langeafstandswandelpad dwars door Groningen, opgedeeld in een Noordroute en een Zuidroute. Wandelaars moeten in elk dorp op de route minstens één stempel halen en ontdekken zodoende gastvrij Groningen.",
    "image": "assets/pronkjewailpad.png"
  },
  {
    "title": "Rond de A",
    "city": "Groningen, The Netherlands",
    "information": "Rond de A is een interessante wandeling die u kennis laat maken met de schoonheid van het landschap tussen Haren en Paterswolde, een plek veur de riek'n zoals men vroeger in Groningen placht te zeggen. Zelfs vanaf de snelweg (A28) is er zoveel schoons te zien dat het de titel mag dragen van Nationaal Snelwegpanorama Drentsche Aa.Al wandelend kunt u genieten van het open karakter van de benedenloop van de Drentsche Aa met het omliggende veenweidegebied en de beslotenheid van de gordel van landgoederen met zijn kronkelende laantjes, doorkijkjes en sierlijke vijvers.Onderweg zou u een bezoek kunnen brengen aan Museum Vosbergen op het landgoed Vosbergen of in de polder Lappenvoort op zoek gaan naar de zeldzame bruine vuurvlinder. Heeft u na de wandeling nog energie te over dan is een boottochtje op het Friesche Veen een aanrader.",
    "image": "assets/rondea1.png"
  }
]