[
  {"name":  "Alarm", "desription":  "aaaa"},
  {"name":  "AED", "desription":  "bbb"},
  {"name":  "Algemene informatie", "desription":  "cccc"},
  {"name":  "Apotheek/art", "desription":  "ddd"},
  {"name":  "Arrangementen", "desription":  "eee"},
  {"name":  "Autoverhuur", "desription":  "fff"},
  {"name":  "Babybed", "desription":  ""},
  {"name":  "Berichten", "desription":  ""},
  {"name":  "Bagagetransport", "desription":  ""},
  {"name":  "Bar", "desription":  ""},
  {"name":  "Betaalwijzen", "desription":  ""},
  {"name":  "Bloemen", "desription":  ""},
  {"name":  "Brand", "desription":  ""},
  {"name":  "Cadeau kaarten", "desription":  ""},
  {"name":  "Correspondentie", "desription":  ""}
]
